<svg id="REPLACE_WITH_PHP" version="1.1" viewBox="-30 -3 566 182" overflow="visible" enable-background="new 0 0 478.619 184.676" preserveAspectRatio="xMidYMid slice" xmlns="http://www.w3.org/2000/svg" xmlns:xlink="http://www.w3.org/1999/xlink">
  <g class="ceinture" style="" transform="matrix(1.110006, 0, 0, 1.082478, -30.337803, -23.004194)">
    <title>ceinture</title>
    <path class="couleur" style="fill: #FFFFFF; stroke: #000000; stroke-width: 4px; stroke-linejoin: round;" d="M 194.387 44.715 C 194.387 44.715 181.661 52.833 190.918 53.429 C 200.175 54.025 218.45 53.85 218.45 53.85 L 205.845 45 L 194.387 44.715 Z">
      <title>couleur</title>
    </path>
    <path class="couleur" style="fill: rgb(255, 255, 255); stroke: rgb(0, 0, 0); stroke-width: 3px; paint-order: fill; stroke-linejoin: round;" d="M 1.655 51.464 C 26.58 52.404 509.313 55.56 509.313 55.56 L 509.913 100.472 L 308.753 97.357 L 1.36 99.966 L 1.655 51.464 Z">
      <title>couleur</title>
    </path>
    <path class="bande" style="fill: none; stroke: rgb(0, 0, 0); stroke-width: 11px;" d="M 1.215 75.036 C 41.737 74.934 483.086 77.574 508.911 77.928">
      <title>bande</title>
    </path>
    <path class="couleur" style="fill: #FFFFFF; stroke: #000000; stroke-width: 4px;" d="M 252.014 126.336 C 252.014 126.336 229.858 120.224 223.746 104.944 C 217.635 89.665 282.573 75.149 282.573 75.149 L 276.461 106.473 L 252.014 126.336 Z">
      <title>couleur</title>
    </path>
    <path class="couleur" style="fill: #FFFFFF; stroke: #000000; stroke-width: 4px; stroke-linejoin: round;" d="M 195.479 102.652 C 195.479 102.652 226.039 124.044 230.622 121.752 C 235.206 119.46 289.449 85.081 289.449 85.081 L 243.61 51.465 L 193.187 89.665 L 195.479 102.652 Z">
      <title>couleur</title>
    </path>
    <path class="bande" style="fill: none; stroke: black; stroke-width: 11px; stroke-linejoin: round; stroke-linecap: round;" d="M 211.41 108.892 C 221.143 102.866 239.854 91.503 258.959 78.783">
      <title>bande</title>
    </path>
    <path class="couleur" style="fill: #FFFFFF; stroke: #000000; stroke-width: 4px; stroke-linejoin: round;" d="M 52.628 143.914 C 52.628 143.914 209.675 61.135 231.866 49.756 C 254.057 38.377 261.981 77.874 261.981 77.874 C 262.872 77.577 84.852 174.358 84.975 174.208 C 85.098 174.058 52.628 143.914 52.628 143.914 Z">
      <title>couleur</title>
    </path>
    <path class="bande" style="fill: none; stroke: black; stroke-width: 11px; stroke-linecap: round; stroke-linejoin: round;" d="M 72.287 157.681 C 76.439 152.411 242.916 64.706 242.896 64.752">
      <title>bande</title>
    </path>
    <path class="couleur" style="fill: #FFFFFF; stroke: #000000; stroke-width: 4px;" d="M 255.967 27.303 C 255.967 27.303 250.677 25.452 241.821 35.763 C 232.964 46.075 256.891 43.96 256.891 43.96 L 255.967 27.303 Z">
      <title>couleur</title>
    </path>
    <path class="couleur" style="fill: #FFFFFF; stroke: #000000; stroke-width: 4px; stroke-linejoin: round;" d="M 232.15 28.546 C 232.15 28.546 425.982 149.207 424.517 151.699 C 423.052 154.191 391.535 174.69 388.953 173.746 L 295.485 107.941 L 194.525 44.685 L 232.15 28.546 Z">
      <title>couleur</title>
    </path>
    <path class="bande" style="fill: none; stroke: black; stroke-width: 11px; stroke-linejoin: round;" d="M 216.708 36.619 C 218.042 39.523 221.044 40.427 228.163 45.381 C 249.57 60.277 380.532 140.234 395.711 152.064 C 402.296 157.196 405.088 157.933 408.094 161.842">
      <title>bande</title>
    </path>
    <path class="couleur" style="fill: #FFFFFF; stroke: #000000; stroke-width: 4px; stroke-linejoin: round;" d="M 255.834 27.782 C 255.834 27.782 254.211 121.228 251.919 125.812 C 249.626 130.396 294.033 111.821 294.796 106.473 C 295.561 101.124 301.673 56.05 297.089 51.466 C 292.505 46.882 260.417 25.49 255.834 27.782 Z">
      <title>couleur</title>
    </path>
    <path class="bande" style="fill: none; stroke: black; stroke-width: 11px; stroke-linejoin: round;" d="M 278.542 38.604 C 275.137 44.893 276.541 65.179 275.834 81.7 C 275.182 96.953 275.833 102.266 276.329 118.023">
      <title>bande</title>
    </path>
  </g>
  <g class="ecusson" transform="matrix(1.426181, 0, 0, 1.374701, 44.638531, 54.484947)" style="">
    <title>ecusson</title>
    <circle class="couleur" style="fill:#ffffff; stroke: #000000;" r="38">
      <title>couleur</title>
    </circle>
    <path d="M0,38A19,19 0 1,1 0,0A19,19 0 1,0 0-38A38,38 0 1,0 0,38M0-24a5,5 0 1,1-.1,0z"/>
    <circle cy="19" r="5"/>
  </g>
  <g class="cqp" transform="matrix(2.988861, 0, 0, 2.711592, 375.459167, -12.183125)" style="">
    <title id="title8836">cqp</title>
    <defs id="defs3">
      <linearGradient x1="25.98" y1="2.486" x2="26.09" y2="42.61" id="linearGradient2880" gradientUnits="userSpaceOnUse" gradientTransform="translate(0.002,252)" xlink:href="#linearGradient5584"/>
      <linearGradient x1="22.5" y1="23" x2="20.75" y2="3.5" id="linearGradient2894" gradientUnits="userSpaceOnUse" gradientTransform="translate(0.002,252)" xlink:href="#linearGradient5635"/>
      <linearGradient x1="-543.3" y1="-2279" x2="-500.7" y2="-1918" id="linearGradient2898" gradientUnits="userSpaceOnUse" gradientTransform="matrix(0.0913,0,0,0.0937,69.69,470.6)" xlink:href="#linearGradient9590"/>
    </defs>
    <rect x="2.539" y="5.623" width="42.835" height="34.763" style="fill: rgb(216, 216, 216);"/>
    <g transform="translate(0,-252)" id="layer2" style="display: inline;">
      <rect width="42.99" height="35.01" rx="0.7763" ry="0.7763" x="2.507" y="257.5" id="rect1324" style="color: rgb(0, 0, 0); fill: url(#linearGradient2898); fill-rule: nonzero; stroke: rgb(136, 138, 133); stroke-width: 1; stroke-linecap: square; stroke-linejoin: miter; stroke-miterlimit: 4; stroke-opacity: 1; stroke-dasharray: none; stroke-dashoffset: 0; marker: none; display: inline; overflow: visible;"/>
      <path d="m 6.471,259.1 c -1.366,0 -2.469,1.1 -2.469,2.4 0,0.8 0.403,1.6 1,2 -0.612,0.5 -1,1.2 -1,2 0,0.8 0.388,1.5 1,2 -0.612,0.5 -1,1.2 -1,2 0,0.8 0.388,1.5 1,2 -0.612,0.5 -1,1.2 -1,2 0,0.8 0.388,1.5 1,2 -0.612,0.5 -1,1.2 -1,2 0,0.8 0.388,1.5 1,2 -0.612,0.5 -1,1.2 -1,2 0,0.8 0.388,1.5 1,2 -0.612,0.5 -1,1.2 -1,2 0,0.6 0.19,1.1 0.5,1.5 -0.32,0.4 -0.5,0.9 -0.5,1.5 0,1.4 1.103,2.5 2.469,2.5 0.799,0 1.516,-0.4 1.969,-1 0.453,0.6 1.145,1 1.94,1 0.79,0 1.48,-0.4 1.93,-1 0.46,0.6 1.17,1 1.97,1 0.8,0 1.52,-0.4 1.97,-1 0.45,0.6 1.15,1 1.94,1 0.79,0 1.48,-0.4 1.93,-1 0.46,0.6 1.17,1 1.97,1 0.8,0 1.49,-0.4 1.94,-1 0.45,0.6 1.14,1 1.94,1 0.8,0 1.51,-0.4 1.97,-1 0.45,0.6 1.14,1 1.93,1 0.8,0 1.52,-0.4 1.97,-1 0.46,0.6 1.14,1 1.94,1 0.8,0 1.52,-0.4 1.97,-1 0.45,0.6 1.15,1 1.94,1 0.79,0 1.48,-0.4 1.94,-1 0.45,0.6 1.16,1 1.96,1 1.37,0 2.47,-1.1 2.47,-2.5 0,-0.6 -0.19,-1.1 -0.53,-1.5 0.3,-0.4 0.47,-1 0.47,-1.5 0,-0.8 -0.39,-1.5 -1,-2 0.61,-0.5 1,-1.2 1,-2 0,-0.8 -0.39,-1.5 -1,-2 0.61,-0.5 1,-1.2 1,-2 0,-0.8 -0.39,-1.5 -1,-2 0.61,-0.5 1,-1.2 1,-2 0,-0.8 -0.39,-1.5 -1,-2 0.61,-0.5 1,-1.2 1,-2 0,-0.8 -0.39,-1.5 -1,-2 0.61,-0.5 1,-1.2 1,-2 0,-0.8 -0.38,-1.5 -0.97,-2 0.62,-0.4 1.03,-1.1 1.03,-2 0,-1.3 -1.1,-2.4 -2.47,-2.4 -0.8,0 -1.51,0.3 -1.96,0.9 -0.46,-0.5 -1.15,-0.9 -1.94,-0.9 -0.79,0 -1.49,0.4 -1.94,0.9 -0.45,-0.6 -1.17,-0.9 -1.97,-0.9 -0.8,0 -1.48,0.3 -1.94,0.9 -0.45,-0.6 -1.17,-0.9 -1.97,-0.9 -0.79,0 -1.48,0.3 -1.93,0.9 -0.46,-0.6 -1.17,-0.9 -1.97,-0.9 -0.8,0 -1.49,0.3 -1.94,0.9 -0.45,-0.6 -1.14,-0.9 -1.94,-0.9 -0.8,0 -1.51,0.3 -1.97,0.9 -0.45,-0.6 -1.14,-0.9 -1.93,-0.9 -0.79,0 -1.49,0.4 -1.94,0.9 -0.45,-0.6 -1.17,-0.9 -1.97,-0.9 -0.8,0 -1.51,0.3 -1.97,0.9 -0.45,-0.5 -1.14,-0.9 -1.93,-0.9 -0.795,0 -1.487,0.4 -1.94,0.9 -0.453,-0.6 -1.17,-0.9 -1.969,-0.9 z M 8.44,263 c 0.453,0.6 1.145,1 1.94,1 0.79,0 1.48,-0.4 1.93,-1 0.46,0.6 1.17,1 1.97,1 0.8,0 1.52,-0.4 1.97,-1 0.45,0.6 1.15,1 1.94,1 0.79,0 1.48,-0.4 1.93,-1 0.46,0.6 1.17,1 1.97,1 0.8,0 1.49,-0.4 1.94,-1 0.45,0.6 1.14,1 1.94,1 0.8,0 1.51,-0.4 1.97,-1 0.45,0.6 1.14,1 1.93,1 0.8,0 1.52,-0.4 1.97,-1 0.46,0.6 1.14,1 1.94,1 0.8,0 1.52,-0.4 1.97,-1 0.45,0.6 1.15,1 1.94,1 0.79,0 1.48,-0.4 1.94,-1 0.12,0.2 0.27,0.3 0.43,0.5 -0.64,0.4 -1.06,1.1 -1.06,2 0,0.8 0.39,1.5 1,2 -0.61,0.5 -1,1.2 -1,2 0,0.8 0.39,1.5 1,2 -0.61,0.5 -1,1.2 -1,2 0,0.8 0.39,1.5 1,2 -0.61,0.5 -1,1.2 -1,2 0,0.8 0.39,1.5 1,2 -0.61,0.5 -1,1.2 -1,2 0,0.8 0.39,1.5 1,2 -0.61,0.5 -1,1.2 -1,2 0,0.4 0.1,0.8 0.25,1.1 -0.42,-0.4 -0.97,-0.6 -1.56,-0.6 -0.79,0 -1.49,0.4 -1.94,1 -0.45,-0.6 -1.17,-1 -1.97,-1 -0.8,0 -1.48,0.4 -1.94,1 -0.45,-0.6 -1.17,-1 -1.97,-1 -0.79,0 -1.48,0.4 -1.93,1 -0.46,-0.6 -1.17,-1 -1.97,-1 -0.8,0 -1.49,0.4 -1.94,1 -0.45,-0.6 -1.14,-1 -1.94,-1 -0.8,0 -1.51,0.4 -1.97,1 -0.45,-0.6 -1.14,-1 -1.93,-1 -0.79,0 -1.49,0.4 -1.94,1 -0.45,-0.6 -1.17,-1 -1.97,-1 -0.8,0 -1.51,0.4 -1.97,1 -0.45,-0.6 -1.14,-1 -1.93,-1 -0.7,0 -1.306,0.3 -1.753,0.8 0.234,-0.4 0.375,-0.8 0.375,-1.3 0,-0.8 -0.388,-1.5 -1,-2 0.612,-0.5 1,-1.2 1,-2 0,-0.8 -0.388,-1.5 -1,-2 0.612,-0.5 1,-1.2 1,-2 0,-0.8 -0.388,-1.5 -1,-2 0.612,-0.5 1,-1.2 1,-2 0,-0.8 -0.388,-1.5 -1,-2 0.612,-0.5 1,-1.2 1,-2 0,-0.8 -0.388,-1.5 -1,-2 0.612,-0.5 1,-1.2 1,-2 0,-0.8 -0.408,-1.5 -1.031,-2 0.178,-0.1 0.333,-0.3 0.469,-0.5 z" id="path5613" style="opacity: 0.3029; color: rgb(0, 0, 0); fill: rgb(85, 87, 83); fill-rule: evenodd; stroke: none; stroke-width: 1; marker: none; display: inline; overflow: visible;"/>
      <rect width="36" height="28" rx="0.7763" ry="0.7763" x="6.002" y="261" id="rect5580" style="color: rgb(0, 0, 0); fill: url(#linearGradient2894); fill-rule: evenodd; stroke: none; stroke-width: 0.2; marker: none; display: inline; overflow: visible;"/>
      <rect x="5.943" y="260.625" width="36.405" height="28.566" style="stroke-linejoin: round; fill: rgb(255, 255, 255);"/>
      <g transform="matrix(1, 0, 0, 1, -2.174874, 2.711338)">
        <path d="M 11.16 279.7 C 11.16 279.9 11.16 280.2 11.16 280.2 C 11.16 280.2 11.26 279.7 11 279.6 C 10.56 279.5 10.29 280.1 10.15 280.6 C 9.917 281.2 10.05 281.9 10.73 282.1 C 11.47 282.3 12.68 281.4 12.68 281.4 C 12.68 281.4 12.54 281.5 12.5 281.5 C 12.4 281.7 12.36 281.8 12.4 281.9 C 12.4 281.9 12.53 281.9 12.58 281.9 C 12.79 282 13.06 281.9 13.11 281.7 C 13.21 281.5 13.29 281.2 13.29 281.2 C 13.29 281.2 13.19 281.4 13.16 281.4 C 13.06 281.6 13.28 281.7 13.46 281.8 C 13.76 281.9 14.16 281.4 14.21 281.4 C 14.21 281.4 14.31 281.7 14.46 281.8 C 14.68 281.8 14.95 281.6 15.04 281.6 C 15.04 281.6 15.14 281.7 15.17 281.7 C 15.43 281.8 15.83 281.6 15.87 281.6 C 15.87 281.6 15.97 282.2 15.97 282.7" id="path1332" style="fill: none; stroke: rgb(32, 74, 135); stroke-width: 0.2; stroke-linecap: round; stroke-linejoin: round; stroke-miterlimit: 4; stroke-dasharray: none;"/>
        <path d="M 17.16 280.1 C 16.97 280.6 17.01 281 16.87 281.5" id="path1334" style="fill: none; stroke: rgb(32, 74, 135); stroke-width: 0.2; stroke-linecap: round; stroke-linejoin: round; stroke-miterlimit: 4; stroke-dasharray: none;"/>
        <path d="M 17.02 280.3 C 17.02 280.4 16.92 280.5 16.84 280.5 C 17.33 280.4 18.03 280.2 18.08 280.3 C 18.08 280.3 18.08 280.4 18.08 280.4 C 17.98 280.8 17.59 281.2 17.59 281.2 C 17.59 281.3 18.91 281 19.03 281.1 C 19.13 281.1 19.03 281.3 19.03 281.4 C 18.93 281.6 18.85 281.7 18.71 281.8 C 18.81 281.8 18.81 281.8 18.85 281.8" id="path1336" style="fill: none; stroke: rgb(32, 74, 135); stroke-width: 0.2; stroke-linecap: round; stroke-linejoin: round; stroke-miterlimit: 4; stroke-dasharray: none;"/>
        <path d="M 19.73 280.7 C 19.73 280.8 19.73 280.8 19.63 280.8 C 19.98 280.9 20.16 280.7 20.51 280.7 C 20.41 281 20.37 281.2 20.24 281.5 C 20.59 281.1 21.17 280.7 21.26 280.7 C 21.36 280.7 21.26 281.5 21.26 281.5 C 21.43 281.6 22.85 280.4 22.99 280.5 C 23.09 280.5 22.66 281.5 23.14 281.7 C 23.53 281.8 24.07 281.2 24.07 281.2 C 24.07 281.2 23.89 281.4 23.8 281.5 C 23.8 281.5 23.9 281.5 23.93 281.5 C 24.28 281.5 24.46 281.3 24.81 281.3 C 24.81 281.4 24.71 281.4 24.71 281.5 C 24.81 281.5 24.81 281.5 24.88 281.6 C 25.19 281.7 25.76 281.4 25.76 281.4 C 25.76 281.4 25.66 281.7 25.76 281.7 C 26.37 281.9 26.77 281.6 27.39 281.5" id="path1338" style="fill: none; stroke: rgb(32, 74, 135); stroke-width: 0.2; stroke-linecap: round; stroke-linejoin: round; stroke-miterlimit: 4; stroke-dasharray: none;"/>
      </g>
      <path d="m 34.38,281.1 c 0.1,2.2 0.76,4.3 1.77,6.3 l 0.8,-3.3 3.27,0.7 c -1.17,-0.7 -3.54,-2.9 -4.51,-4.5 l -1.33,0.8 z" id="path5582" style="fill: rgb(52, 101, 164); fill-rule: evenodd; stroke: rgb(32, 74, 135); stroke-width: 1; stroke-linecap: butt; stroke-linejoin: miter; stroke-miterlimit: 10; stroke-opacity: 1; stroke-dasharray: none;"/>
      <path d="m -1933,-1441 c -21,19 -47,1 -73,11 -26,11 -32,42 -60,43 -28,0 -37,-30 -63,-39 -27,-8 -52,11 -74,-6 -22,-17 -9,-46 -23,-70 -15,-24 -47,-25 -52,-52 -6,-27 22,-41 26,-69 4,-27 -19,-48 -6,-73 13,-25 44,-17 65,-35 21,-19 16,-50 42,-61 26,-10 44,16 72,15 28,-1 45,-28 71,-19 27,8 24,40 47,57 21,17 51,8 66,31 15,24 -7,47 -1,74 5,27 35,39 31,67 -4,27 -36,31 -49,55 -13,25 2,53 -19,71 z" id="path1342" style="color: rgb(0, 0, 0); fill: rgb(247, 249, 153); fill-rule: nonzero; stroke: rgb(253, 205, 18); stroke-width: 48.8927; stroke-linecap: square; stroke-linejoin: miter; stroke-miterlimit: 4; stroke-opacity: 1; stroke-dasharray: none; stroke-dashoffset: 0; marker: none; display: inline; overflow: visible;" transform="matrix(0.0195,0,0,0.0196,73.96,310.8)"/>
      <path d="m -941.1,-1093 a 29.98,29.07 0 1 1 -59.9,0 29.98,29.07 0 1 1 59.9,0 z" id="path1346" style="color: rgb(0, 0, 0); fill: rgb(253, 206, 21); fill-rule: nonzero; stroke: none; stroke-width: 6.25; marker: none; display: inline; overflow: visible;" transform="matrix(0.0858,0,0,0.0863,116.7,373.7)"/>
      <path d="m 34.4,278 c -0.1,0 -0.18,-0.1 -0.28,-0.1 -0.26,-0.1 -0.54,-0.2 -0.83,-0.2 0,0 0,0 0,0 -1.16,0 -2.08,1.5 -1.42,2.5 0.1,0.1 0.14,0.1 0.22,0.3" id="path1348" style="color: rgb(0, 0, 0); fill: none; stroke: rgb(255, 255, 255); stroke-width: 0.5579; stroke-linecap: round; stroke-linejoin: round; stroke-miterlimit: 4; stroke-opacity: 1; stroke-dasharray: none; stroke-dashoffset: 0; marker: none; display: inline; overflow: visible;"/>
      <rect width="41" height="32.98" x="3.502" y="258.5" id="rect2231" style="opacity: 0.6971; color: rgb(0, 0, 0); fill: none; stroke: url(#linearGradient2880); stroke-width: 1; stroke-linecap: butt; stroke-linejoin: miter; stroke-miterlimit: 4; stroke-opacity: 1; stroke-dasharray: none; stroke-dashoffset: 0; marker: none; display: inline; overflow: visible;" ry="0" rx="0"/>
      <path d="M 12.813 279.698 L 25.133 279.698" id="path2239" style="fill: none; stroke: rgb(136, 138, 133); stroke-width: 1px; stroke-linecap: round; stroke-linejoin: miter; stroke-opacity: 1;"/>
      <path d="M 12.784 277.759 L 25.104 277.759" id="path2241" style="fill: none; stroke: rgb(136, 138, 133); stroke-width: 1px; stroke-linecap: round; stroke-linejoin: miter; stroke-opacity: 1;"/>
      <path d="M 9.203 286.305 L 24.203 286.305" id="path5578" style="fill: none; stroke: rgb(136, 138, 133); stroke-width: 1px; stroke-linecap: butt; stroke-linejoin: miter; stroke-opacity: 1;"/>
      <text transform="matrix(0.223569, 0, 0, 0.228089, -176.305374, 141.279877)" style="font-size: 20.0643px; font-weight: 700; line-height: 32.1028px; white-space: pre;"><tspan x="820.013" y="543.723">Certificat de </tspan><tspan x="820.013" dy="1em">​</tspan><tspan>Qualification </tspan><tspan x="820.013" dy="1em">​</tspan><tspan>Professionnelle</tspan></text>
    </g>
  </g>
</svg>
